<?xml version="1.0" encoding="UTF-8" standalone="no"?>
<!-- Created with Inkscape (http://www.inkscape.org/) -->

<svg
   xmlns:dc="http://purl.org/dc/elements/1.1/"
   xmlns:cc="http://creativecommons.org/ns#"
   xmlns:rdf="http://www.w3.org/1999/02/22-rdf-syntax-ns#"
   xmlns:svg="http://www.w3.org/2000/svg"
   xmlns="http://www.w3.org/2000/svg"
   xmlns:sodipodi="http://sodipodi.sourceforge.net/DTD/sodipodi-0.dtd"
   xmlns:inkscape="http://www.inkscape.org/namespaces/inkscape"
   width="129.99971mm"
   height="36.491005mm"
   viewBox="0 0 460.62889 129.29884"
   id="svg2"
   version="1.1"
   inkscape:version="0.91 r13725"
   sodipodi:docname="libreflix_novo.svg">
  <defs
     id="defs4">
    <inkscape:perspective
       sodipodi:type="inkscape:persp3d"
       inkscape:vp_x="0 : 526.18108 : 1"
       inkscape:vp_y="0 : 999.99995 : 0"
       inkscape:vp_z="744.09446 : 526.18108 : 1"
       inkscape:persp3d-origin="372.04722 : 350.78739 : 1"
       id="perspective4193" />
  </defs>
  <sodipodi:namedview
     id="base"
     pagecolor="#ffffff"
     bordercolor="#666666"
     borderopacity="1.0"
     inkscape:pageopacity="0.0"
     inkscape:pageshadow="2"
     inkscape:zoom="0.35"
     inkscape:cx="-178.40754"
     inkscape:cy="101.01761"
     inkscape:document-units="px"
     inkscape:current-layer="layer1"
     showgrid="false"
     inkscape:window-width="1366"
     inkscape:window-height="715"
     inkscape:window-x="0"
     inkscape:window-y="0"
     inkscape:window-maximized="1"
     showguides="true"
     inkscape:guide-bbox="true"
     fit-margin-top="0"
     fit-margin-left="0"
     fit-margin-right="0"
     fit-margin-bottom="0">
    <sodipodi:guide
       position="92.644725,-184.1125"
       orientation="1,0"
       id="guide4162" />
  </sodipodi:namedview>
  <metadata
     id="metadata7">
    <rdf:RDF>
      <cc:Work
         rdf:about="">
        <dc:format>image/svg+xml</dc:format>
        <dc:type
           rdf:resource="http://purl.org/dc/dcmitype/StillImage" />
        <dc:title></dc:title>
      </cc:Work>
    </rdf:RDF>
  </metadata>
  <g
     inkscape:label="Layer 1"
     inkscape:groupmode="layer"
     id="layer1"
     transform="translate(-176.64098,-215.91515)">
    <g
       id="g4290">
      <path
         inkscape:connector-curvature="0"
         id="path4288"
         d="m 176.64098,215.91515 0,129.29884 c 154.9304,-22.0462 308.3917,-19.6197 460.6289,0 l 0,-129.29884 -460.6289,0 z"
         style="opacity:1;fill:#ffffff;fill-opacity:1;stroke:none;stroke-width:0.2;stroke-linecap:round;stroke-linejoin:round;stroke-miterlimit:4;stroke-dasharray:none;stroke-opacity:0.49019608" />
      <path
         inkscape:connector-curvature="0"
         id="rect4234"
         d="m 176.64098,215.91515 0,129.29884 c 154.9304,-22.0462 308.3917,-19.6197 460.6289,0 l 0,-129.29884 -460.6289,0 z m 83.3164,7.73047 22.9825,0 c 6.0635,0 11.5317,1.59876 16.4043,4.79297 4.1687,2.70695 7.147,6.90134 8.9335,12.58594 0.9745,3.03179 1.461,6.63207 1.461,10.80078 0,6.82154 -1.8141,12.28972 -5.4414,16.4043 -1.5159,1.73245 -3.3021,3.06009 -5.3594,3.98046 3.4108,1.29933 6.3073,3.87096 8.6895,7.71485 1.57,2.59868 2.7342,5.95379 3.4921,10.06836 0.379,2.11141 0.5684,4.46772 0.5684,7.0664 0,6.44256 -1.218,11.91081 -3.6543,16.40431 -1.8949,3.519 -4.5742,6.3339 -8.0391,8.4453 -3.898,2.3821 -7.7694,3.5723 -11.6132,3.5723 l -28.4239,0 0,-101.83597 z m 129.752,0 43.6894,0 0,15.34961 -28.3418,0 0,27.85352 20.709,0 0,15.42968 -20.709,0 0,27.85546 28.3418,0 0,15.3477 -43.6894,0 0,-101.83597 z m 54.2676,0 43.6894,0 0,15.34961 -28.3418,0 0,27.85352 20.709,0 0,15.42968 -20.709,0 0,43.20316 -15.3476,0 0,-101.83597 z m -265.5313,0.082 15.3477,0 0,86.48824 26.4746,0 0,15.2657 -41.8223,0 0,-101.75394 z m 52.4805,0 15.3476,0 0,101.75394 -15.3476,0 0,-101.75394 z m 94.0195,0 24.1992,0 c 8.554,0 14.8355,2.35435 18.8418,7.06446 3.5191,4.11457 5.2774,9.85387 5.2774,17.21679 l 0,14.7793 c 0,7.2005 -2.7331,13.29263 -8.2012,18.27344 l 11.3691,44.41995 -16.5664,0 -9.3398,-38.41019 c -0.4331,0.0541 -0.8936,0.0801 -1.3809,0.0801 l -8.8515,0 0,38.33011 -15.3477,0 0,-101.75394 z m 173.2988,0 15.3477,0 0,86.48824 26.4746,0 0,15.2657 -41.8223,0 0,-101.75394 z m 52.4805,0 15.3496,0 0,101.75394 -15.3496,0 0,-101.75394 z m 28.1387,0 16.9726,0 11.3692,31.42774 11.289,-31.42774 16.9727,0 -19.9785,50.59375 19.9785,51.16019 -16.4863,0 -11.7754,-32.32034 -11.8555,32.32034 -16.4863,0 19.9785,-51.16019 -19.9785,-50.59375 z m -302.3399,15.51172 0,25.98633 6.4161,0 c 4.7642,0 7.9578,-2.32842 9.582,-6.98438 0.5955,-1.73245 0.8945,-3.87147 0.8945,-6.41601 0,-4.22285 -1.0286,-7.41647 -3.0859,-9.58203 -1.8949,-2.00316 -4.3589,-3.00391 -7.3906,-3.00391 l -6.4161,0 z m 63.7696,0.16211 0,32.56445 9.2578,0 c 2.4362,0 4.4936,-0.86716 6.1719,-2.59961 1.7324,-1.73245 2.5996,-3.81569 2.5996,-6.25195 l 0,-14.86133 c 0,-5.90116 -2.9245,-8.85156 -8.7715,-8.85156 l -9.2578,0 z m -63.7696,40.52344 0,30.37107 6.4161,0 c 5.1973,0 8.7976,-2.6793 10.8007,-8.03904 0.7038,-1.84073 1.0567,-3.95186 1.0567,-6.33398 0,-5.6846 -1.0844,-9.8271 -3.25,-12.42579 -1.949,-2.38212 -4.8177,-3.57226 -8.6074,-3.57226 l -6.4161,0 z"
         style="opacity:1;fill:#0914e6;fill-opacity:1;stroke:none;stroke-width:0.2;stroke-linecap:round;stroke-linejoin:round;stroke-miterlimit:4;stroke-dasharray:none;stroke-opacity:0.49019608" />
      <g
         transform="matrix(2.8585453,0,0,2.8585453,711.20255,-546.31052)"
         id="text4136-6"
         style="font-style:normal;font-weight:normal;font-size:40px;line-height:125%;font-family:sans-serif;letter-spacing:0px;word-spacing:0px;fill:#37abc8;fill-opacity:1;stroke:none;stroke-width:1px;stroke-linecap:butt;stroke-linejoin:miter;stroke-opacity:1" />
    </g>
  </g>
</svg>
